[
    {
        "final": true,
        "degrees": [
            3,
            4,
            4,
            5,
            5
        ],
        "numNodes": 18,
        "direction": [
            0,
            0,
            -1
        ],
        "cells": [
            [
                0,
                0,
                0
            ],
            [
                0,
                1,
                0
            ],
            [
                0,
                -1,
                0
            ],
            [
                0,
                0,
                1
            ],
            [
                0,
                0,
                -1
            ],
            [
                1,
                0,
                -1
            ],
            [
                -1,
                0,
                -1
            ],
            [
                0,
                0,
                -2
            ],
            [
                0,
                1,
                -2
            ],
            [
                1,
                1,
                -2
            ],
            [
                -1,
                1,
                -2
            ],
            [
                0,
                2,
                -2
            ],
            [
                0,
                1,
                -3
            ],
            [
                0,
                -1,
                -2
            ],
            [
                1,
                -1,
                -2
            ],
            [
                -1,
                -1,
                -2
            ],
            [
                0,
                -2,
                -2
            ],
            [
                0,
                -1,
                -3
            ]
        ],
        "root": [
            0,
            0,
            0
        ],
        "numLeaves": 13
    },
    {
        "final": false,
        "degrees": [
            3,
            4,
            4,
            5,
            5
        ],
        "numNodes": 18,
        "direction": [
            0,
            1,
            0
        ],
        "cells": [
            [
                0,
                0,
                0
            ],
            [
                0,
                1,
                0
            ],
            [
                0,
                -1,
                0
            ],
            [
                0,
                0,
                1
            ],
            [
                0,
                0,
                -1
            ],
            [
                1,
                0,
                -1
            ],
            [
                -1,
                0,
                -1
            ],
            [
                0,
                0,
                -2
            ],
            [
                0,
                1,
                -2
            ],
            [
                1,
                1,
                -2
            ],
            [
                -1,
                1,
                -2
            ],
            [
                0,
                2,
                -2
            ],
            [
                0,
                1,
                -3
            ],
            [
                0,
                -1,
                -2
            ],
            [
                1,
                -1,
                -2
            ],
            [
                -1,
                -1,
                -2
            ],
            [
                0,
                -2,
                -2
            ],
            [
                0,
                -1,
                -3
            ]
        ],
        "root": [
            0,
            0,
            0
        ],
        "numLeaves": 13
    },
    {
        "final": false,
        "degrees": [
            3,
            4,
            4,
            5,
            5
        ],
        "numNodes": 18,
        "direction": [
            0,
            0,
            1
        ],
        "cells": [
            [
                0,
                0,
                0
            ],
            [
                0,
                1,
                0
            ],
            [
                0,
                -1,
                0
            ],
            [
                0,
                0,
                1
            ],
            [
                0,
                0,
                -1
            ],
            [
                1,
                0,
                -1
            ],
            [
                -1,
                0,
                -1
            ],
            [
                0,
                0,
                -2
            ],
            [
                0,
                1,
                -2
            ],
            [
                1,
                1,
                -2
            ],
            [
                -1,
                1,
                -2
            ],
            [
                0,
                2,
                -2
            ],
            [
                0,
                1,
                -3
            ],
            [
                0,
                -1,
                -2
            ],
            [
                1,
                -1,
                -2
            ],
            [
                -1,
                -1,
                -2
            ],
            [
                0,
                -2,
                -2
            ],
            [
                0,
                -1,
                -3
            ]
        ],
        "root": [
            0,
            0,
            0
        ],
        "numLeaves": 13
    },
    {
        "final": true,
        "degrees": [
            2,
            3,
            4,
            5,
            5,
            6
        ],
        "numNodes": 21,
        "direction": [
            0,
            0,
            1
        ],
        "cells": [
            [
                0,
                0,
                0
            ],
            [
                0,
                0,
                1
            ],
            [
                0,
                1,
                1
            ],
            [
                0,
                -1,
                1
            ],
            [
                0,
                0,
                2
            ],
            [
                1,
                0,
                2
            ],
            [
                2,
                0,
                2
            ],
            [
                1,
                1,
                2
            ],
            [
                1,
                -1,
                2
            ],
            [
                1,
                0,
                3
            ],
            [
                -1,
                0,
                2
            ],
            [
                -2,
                0,
                2
            ],
            [
                -1,
                1,
                2
            ],
            [
                -1,
                -1,
                2
            ],
            [
                -1,
                0,
                3
            ],
            [
                0,
                0,
                -1
            ],
            [
                1,
                0,
                -1
            ],
            [
                -1,
                0,
                -1
            ],
            [
                0,
                1,
                -1
            ],
            [
                0,
                -1,
                -1
            ],
            [
                0,
                0,
                -2
            ]
        ],
        "root": [
            0,
            0,
            0
        ],
        "numLeaves": 15
    },
    {
        "final": true,
        "degrees": [
            2,
            3,
            4,
            5,
            5,
            6
        ],
        "numNodes": 21,
        "direction": [
            0,
            0,
            -1
        ],
        "cells": [
            [
                0,
                0,
                0
            ],
            [
                0,
                0,
                1
            ],
            [
                0,
                1,
                1
            ],
            [
                0,
                -1,
                1
            ],
            [
                0,
                0,
                2
            ],
            [
                1,
                0,
                2
            ],
            [
                2,
                0,
                2
            ],
            [
                1,
                1,
                2
            ],
            [
                1,
                -1,
                2
            ],
            [
                1,
                0,
                3
            ],
            [
                -1,
                0,
                2
            ],
            [
                -2,
                0,
                2
            ],
            [
                -1,
                1,
                2
            ],
            [
                -1,
                -1,
                2
            ],
            [
                -1,
                0,
                3
            ],
            [
                0,
                0,
                -1
            ],
            [
                1,
                0,
                -1
            ],
            [
                -1,
                0,
                -1
            ],
            [
                0,
                1,
                -1
            ],
            [
                0,
                -1,
                -1
            ],
            [
                0,
                0,
                -2
            ]
        ],
        "root": [
            0,
            0,
            0
        ],
        "numLeaves": 15
    },
    {
        "final": true,
        "degrees": [
            3,
            3,
            4,
            5,
            5,
            5
        ],
        "numNodes": 21,
        "direction": [
            0,
            0,
            1
        ],
        "cells": [
            [
                0,
                0,
                0
            ],
            [
                0,
                -1,
                0
            ],
            [
                0,
                0,
                1
            ],
            [
                1,
                0,
                1
            ],
            [
                -1,
                0,
                1
            ],
            [
                0,
                0,
                2
            ],
            [
                0,
                1,
                2
            ],
            [
                1,
                1,
                2
            ],
            [
                -1,
                1,
                2
            ],
            [
                0,
                2,
                2
            ],
            [
                0,
                1,
                3
            ],
            [
                0,
                -1,
                2
            ],
            [
                1,
                -1,
                2
            ],
            [
                -1,
                -1,
                2
            ],
            [
                0,
                -2,
                2
            ],
            [
                0,
                -1,
                3
            ],
            [
                0,
                0,
                -1
            ],
            [
                1,
                0,
                -1
            ],
            [
                -1,
                0,
                -1
            ],
            [
                0,
                1,
                -1
            ],
            [
                0,
                0,
                -2
            ]
        ],
        "root": [
            0,
            0,
            0
        ],
        "numLeaves": 15
    },
    {
        "final": false,
        "degrees": [
            3,
            3,
            4,
            5,
            5,
            5
        ],
        "numNodes": 21,
        "direction": [
            0,
            0,
            1
        ],
        "cells": [
            [
                0,
                0,
                0
            ],
            [
                0,
                -1,
                0
            ],
            [
                1,
                -1,
                0
            ],
            [
                -1,
                -1,
                0
            ],
            [
                0,
                -2,
                0
            ],
            [
                0,
                -2,
                1
            ],
            [
                1,
                -2,
                1
            ],
            [
                -1,
                -2,
                1
            ],
            [
                0,
                -3,
                1
            ],
            [
                0,
                -2,
                2
            ],
            [
                0,
                -2,
                -1
            ],
            [
                1,
                -2,
                -1
            ],
            [
                -1,
                -2,
                -1
            ],
            [
                0,
                -3,
                -1
            ],
            [
                0,
                -2,
                -2
            ],
            [
                0,
                0,
                1
            ],
            [
                0,
                0,
                -1
            ],
            [
                1,
                0,
                -1
            ],
            [
                -1,
                0,
                -1
            ],
            [
                0,
                1,
                -1
            ],
            [
                0,
                0,
                -2
            ]
        ],
        "root": [
            0,
            0,
            0
        ],
        "numLeaves": 15
    },
    {
        "final": true,
        "degrees": [
            3,
            3,
            4,
            5,
            5,
            5
        ],
        "numNodes": 21,
        "direction": [
            0,
            0,
            -1
        ],
        "cells": [
            [
                0,
                0,
                0
            ],
            [
                0,
                -1,
                0
            ],
            [
                1,
                -1,
                0
            ],
            [
                -1,
                -1,
                0
            ],
            [
                0,
                -2,
                0
            ],
            [
                0,
                -2,
                1
            ],
            [
                1,
                -2,
                1
            ],
            [
                -1,
                -2,
                1
            ],
            [
                0,
                -3,
                1
            ],
            [
                0,
                -2,
                2
            ],
            [
                0,
                -2,
                -1
            ],
            [
                1,
                -2,
                -1
            ],
            [
                -1,
                -2,
                -1
            ],
            [
                0,
                -3,
                -1
            ],
            [
                0,
                -2,
                -2
            ],
            [
                0,
                0,
                1
            ],
            [
                0,
                0,
                -1
            ],
            [
                1,
                0,
                -1
            ],
            [
                -1,
                0,
                -1
            ],
            [
                0,
                1,
                -1
            ],
            [
                0,
                0,
                -2
            ]
        ],
        "root": [
            0,
            0,
            0
        ],
        "numLeaves": 15
    },
    {
        "final": true,
        "degrees": [
            3,
            3,
            4,
            5,
            5,
            5
        ],
        "numNodes": 21,
        "direction": [
            0,
            0,
            -1
        ],
        "cells": [
            [
                0,
                0,
                0
            ],
            [
                0,
                -1,
                0
            ],
            [
                0,
                0,
                1
            ],
            [
                1,
                0,
                1
            ],
            [
                -1,
                0,
                1
            ],
            [
                0,
                0,
                2
            ],
            [
                0,
                1,
                2
            ],
            [
                1,
                1,
                2
            ],
            [
                -1,
                1,
                2
            ],
            [
                0,
                2,
                2
            ],
            [
                0,
                1,
                3
            ],
            [
                0,
                -1,
                2
            ],
            [
                1,
                -1,
                2
            ],
            [
                -1,
                -1,
                2
            ],
            [
                0,
                -2,
                2
            ],
            [
                0,
                -1,
                3
            ],
            [
                0,
                0,
                -1
            ],
            [
                1,
                0,
                -1
            ],
            [
                -1,
                0,
                -1
            ],
            [
                0,
                1,
                -1
            ],
            [
                0,
                0,
                -2
            ]
        ],
        "root": [
            0,
            0,
            0
        ],
        "numLeaves": 15
    },
    {
        "final": true,
        "degrees": [
            3,
            3,
            4,
            5,
            5,
            5
        ],
        "numNodes": 21,
        "direction": [
            0,
            -1,
            0
        ],
        "cells": [
            [
                0,
                0,
                0
            ],
            [
                0,
                -1,
                0
            ],
            [
                1,
                -1,
                0
            ],
            [
                -1,
                -1,
                0
            ],
            [
                0,
                -2,
                0
            ],
            [
                0,
                -2,
                1
            ],
            [
                1,
                -2,
                1
            ],
            [
                -1,
                -2,
                1
            ],
            [
                0,
                -3,
                1
            ],
            [
                0,
                -2,
                2
            ],
            [
                0,
                -2,
                -1
            ],
            [
                1,
                -2,
                -1
            ],
            [
                -1,
                -2,
                -1
            ],
            [
                0,
                -3,
                -1
            ],
            [
                0,
                -2,
                -2
            ],
            [
                0,
                0,
                1
            ],
            [
                0,
                0,
                -1
            ],
            [
                1,
                0,
                -1
            ],
            [
                -1,
                0,
                -1
            ],
            [
                0,
                1,
                -1
            ],
            [
                0,
                0,
                -2
            ]
        ],
        "root": [
            0,
            0,
            0
        ],
        "numLeaves": 15
    },
    {
        "final": true,
        "degrees": [
            3,
            3,
            4,
            4,
            5,
            5,
            5,
            5
        ],
        "numNodes": 28,
        "direction": [
            0,
            0,
            1
        ],
        "cells": [
            [
                0,
                0,
                0
            ],
            [
                0,
                1,
                0
            ],
            [
                0,
                -1,
                0
            ],
            [
                0,
                0,
                1
            ],
            [
                1,
                0,
                1
            ],
            [
                -1,
                0,
                1
            ],
            [
                0,
                0,
                2
            ],
            [
                0,
                1,
                2
            ],
            [
                1,
                1,
                2
            ],
            [
                -1,
                1,
                2
            ],
            [
                0,
                2,
                2
            ],
            [
                0,
                1,
                3
            ],
            [
                0,
                -1,
                2
            ],
            [
                1,
                -1,
                2
            ],
            [
                -1,
                -1,
                2
            ],
            [
                0,
                -2,
                2
            ],
            [
                0,
                -1,
                3
            ],
            [
                0,
                0,
                -1
            ],
            [
                1,
                0,
                -1
            ],
            [
                2,
                0,
                -1
            ],
            [
                1,
                1,
                -1
            ],
            [
                1,
                -1,
                -1
            ],
            [
                1,
                0,
                -2
            ],
            [
                -1,
                0,
                -1
            ],
            [
                -2,
                0,
                -1
            ],
            [
                -1,
                1,
                -1
            ],
            [
                -1,
                -1,
                -1
            ],
            [
                -1,
                0,
                -2
            ]
        ],
        "root": [
            0,
            0,
            0
        ],
        "numLeaves": 20
    },
    {
        "final": true,
        "degrees": [
            3,
            3,
            4,
            4,
            4,
            5,
            5,
            5,
            5
        ],
        "numNodes": 31,
        "direction": [
            0,
            0,
            1
        ],
        "cells": [
            [
                0,
                0,
                0
            ],
            [
                0,
                1,
                0
            ],
            [
                0,
                -1,
                0
            ],
            [
                0,
                0,
                1
            ],
            [
                1,
                0,
                1
            ],
            [
                -1,
                0,
                1
            ],
            [
                0,
                0,
                2
            ],
            [
                0,
                1,
                2
            ],
            [
                1,
                1,
                2
            ],
            [
                -1,
                1,
                2
            ],
            [
                0,
                2,
                2
            ],
            [
                0,
                1,
                3
            ],
            [
                0,
                -1,
                2
            ],
            [
                1,
                -1,
                2
            ],
            [
                -1,
                -1,
                2
            ],
            [
                0,
                -2,
                2
            ],
            [
                0,
                -1,
                3
            ],
            [
                0,
                0,
                -1
            ],
            [
                1,
                0,
                -1
            ],
            [
                -1,
                0,
                -1
            ],
            [
                0,
                0,
                -2
            ],
            [
                0,
                1,
                -2
            ],
            [
                1,
                1,
                -2
            ],
            [
                -1,
                1,
                -2
            ],
            [
                0,
                2,
                -2
            ],
            [
                0,
                1,
                -3
            ],
            [
                0,
                -1,
                -2
            ],
            [
                1,
                -1,
                -2
            ],
            [
                -1,
                -1,
                -2
            ],
            [
                0,
                -2,
                -2
            ],
            [
                0,
                -1,
                -3
            ]
        ],
        "root": [
            0,
            0,
            0
        ],
        "numLeaves": 22
    },
    {
        "final": false,
        "degrees": [
            3,
            3,
            4,
            4,
            4,
            5,
            5,
            5,
            5
        ],
        "numNodes": 31,
        "direction": [
            0,
            -1,
            0
        ],
        "cells": [
            [
                0,
                0,
                0
            ],
            [
                0,
                1,
                0
            ],
            [
                0,
                -1,
                0
            ],
            [
                0,
                0,
                1
            ],
            [
                1,
                0,
                1
            ],
            [
                -1,
                0,
                1
            ],
            [
                0,
                0,
                2
            ],
            [
                0,
                1,
                2
            ],
            [
                1,
                1,
                2
            ],
            [
                -1,
                1,
                2
            ],
            [
                0,
                2,
                2
            ],
            [
                0,
                1,
                3
            ],
            [
                0,
                -1,
                2
            ],
            [
                1,
                -1,
                2
            ],
            [
                -1,
                -1,
                2
            ],
            [
                0,
                -2,
                2
            ],
            [
                0,
                -1,
                3
            ],
            [
                0,
                0,
                -1
            ],
            [
                1,
                0,
                -1
            ],
            [
                -1,
                0,
                -1
            ],
            [
                0,
                0,
                -2
            ],
            [
                0,
                1,
                -2
            ],
            [
                1,
                1,
                -2
            ],
            [
                -1,
                1,
                -2
            ],
            [
                0,
                2,
                -2
            ],
            [
                0,
                1,
                -3
            ],
            [
                0,
                -1,
                -2
            ],
            [
                1,
                -1,
                -2
            ],
            [
                -1,
                -1,
                -2
            ],
            [
                0,
                -2,
                -2
            ],
            [
                0,
                -1,
                -3
            ]
        ],
        "root": [
            0,
            0,
            0
        ],
        "numLeaves": 22
    },
    {
        "final": true,
        "degrees": [
            3,
            3,
            4,
            4,
            4,
            5,
            5,
            5,
            5
        ],
        "numNodes": 31,
        "direction": [
            0,
            0,
            -1
        ],
        "cells": [
            [
                0,
                0,
                0
            ],
            [
                0,
                1,
                0
            ],
            [
                0,
                -1,
                0
            ],
            [
                0,
                0,
                1
            ],
            [
                1,
                0,
                1
            ],
            [
                -1,
                0,
                1
            ],
            [
                0,
                0,
                2
            ],
            [
                0,
                1,
                2
            ],
            [
                1,
                1,
                2
            ],
            [
                -1,
                1,
                2
            ],
            [
                0,
                2,
                2
            ],
            [
                0,
                1,
                3
            ],
            [
                0,
                -1,
                2
            ],
            [
                1,
                -1,
                2
            ],
            [
                -1,
                -1,
                2
            ],
            [
                0,
                -2,
                2
            ],
            [
                0,
                -1,
                3
            ],
            [
                0,
                0,
                -1
            ],
            [
                1,
                0,
                -1
            ],
            [
                -1,
                0,
                -1
            ],
            [
                0,
                0,
                -2
            ],
            [
                0,
                1,
                -2
            ],
            [
                1,
                1,
                -2
            ],
            [
                -1,
                1,
                -2
            ],
            [
                0,
                2,
                -2
            ],
            [
                0,
                1,
                -3
            ],
            [
                0,
                -1,
                -2
            ],
            [
                1,
                -1,
                -2
            ],
            [
                -1,
                -1,
                -2
            ],
            [
                0,
                -2,
                -2
            ],
            [
                0,
                -1,
                -3
            ]
        ],
        "root": [
            0,
            0,
            0
        ],
        "numLeaves": 22
    },
    {
        "final": true,
        "degrees": [
            3,
            3,
            4,
            5,
            5,
            5,
            5
        ],
        "numNodes": 25,
        "direction": [
            0,
            0,
            -1
        ],
        "cells": [
            [
                0,
                0,
                0
            ],
            [
                0,
                -1,
                0
            ],
            [
                1,
                -1,
                0
            ],
            [
                -1,
                -1,
                0
            ],
            [
                0,
                -2,
                0
            ],
            [
                0,
                -2,
                1
            ],
            [
                1,
                -2,
                1
            ],
            [
                -1,
                -2,
                1
            ],
            [
                0,
                -3,
                1
            ],
            [
                0,
                -2,
                2
            ],
            [
                0,
                -2,
                -1
            ],
            [
                1,
                -2,
                -1
            ],
            [
                -1,
                -2,
                -1
            ],
            [
                0,
                -3,
                -1
            ],
            [
                0,
                -2,
                -2
            ],
            [
                0,
                0,
                1
            ],
            [
                1,
                0,
                1
            ],
            [
                -1,
                0,
                1
            ],
            [
                0,
                1,
                1
            ],
            [
                0,
                0,
                2
            ],
            [
                0,
                0,
                -1
            ],
            [
                1,
                0,
                -1
            ],
            [
                -1,
                0,
                -1
            ],
            [
                0,
                1,
                -1
            ],
            [
                0,
                0,
                -2
            ]
        ],
        "root": [
            0,
            0,
            0
        ],
        "numLeaves": 18
    },
    {
        "final": true,
        "degrees": [
            3,
            3,
            4,
            5,
            5,
            5,
            5
        ],
        "numNodes": 25,
        "direction": [
            0,
            0,
            1
        ],
        "cells": [
            [
                0,
                0,
                0
            ],
            [
                0,
                -1,
                0
            ],
            [
                1,
                -1,
                0
            ],
            [
                -1,
                -1,
                0
            ],
            [
                0,
                -2,
                0
            ],
            [
                0,
                -2,
                1
            ],
            [
                1,
                -2,
                1
            ],
            [
                -1,
                -2,
                1
            ],
            [
                0,
                -3,
                1
            ],
            [
                0,
                -2,
                2
            ],
            [
                0,
                -2,
                -1
            ],
            [
                1,
                -2,
                -1
            ],
            [
                -1,
                -2,
                -1
            ],
            [
                0,
                -3,
                -1
            ],
            [
                0,
                -2,
                -2
            ],
            [
                0,
                0,
                1
            ],
            [
                1,
                0,
                1
            ],
            [
                -1,
                0,
                1
            ],
            [
                0,
                1,
                1
            ],
            [
                0,
                0,
                2
            ],
            [
                0,
                0,
                -1
            ],
            [
                1,
                0,
                -1
            ],
            [
                -1,
                0,
                -1
            ],
            [
                0,
                1,
                -1
            ],
            [
                0,
                0,
                -2
            ]
        ],
        "root": [
            0,
            0,
            0
        ],
        "numLeaves": 18
    },
    {
        "final": true,
        "degrees": [
            3,
            3,
            4,
            5,
            5,
            5,
            5
        ],
        "numNodes": 25,
        "direction": [
            0,
            -1,
            0
        ],
        "cells": [
            [
                0,
                0,
                0
            ],
            [
                0,
                -1,
                0
            ],
            [
                1,
                -1,
                0
            ],
            [
                -1,
                -1,
                0
            ],
            [
                0,
                -2,
                0
            ],
            [
                0,
                -2,
                1
            ],
            [
                1,
                -2,
                1
            ],
            [
                -1,
                -2,
                1
            ],
            [
                0,
                -3,
                1
            ],
            [
                0,
                -2,
                2
            ],
            [
                0,
                -2,
                -1
            ],
            [
                1,
                -2,
                -1
            ],
            [
                -1,
                -2,
                -1
            ],
            [
                0,
                -3,
                -1
            ],
            [
                0,
                -2,
                -2
            ],
            [
                0,
                0,
                1
            ],
            [
                1,
                0,
                1
            ],
            [
                -1,
                0,
                1
            ],
            [
                0,
                1,
                1
            ],
            [
                0,
                0,
                2
            ],
            [
                0,
                0,
                -1
            ],
            [
                1,
                0,
                -1
            ],
            [
                -1,
                0,
                -1
            ],
            [
                0,
                1,
                -1
            ],
            [
                0,
                0,
                -2
            ]
        ],
        "root": [
            0,
            0,
            0
        ],
        "numLeaves": 18
    }
]