[
    {
        "final": false,
        "degrees": [
            3,
            4,
            5,
            5
        ],
        "numNodes": 15,
        "direction": [
            0,
            0,
            1
        ],
        "cells": [
            [
                0,
                0,
                0
            ],
            [
                0,
                1,
                0
            ],
            [
                0,
                -1,
                0
            ],
            [
                0,
                0,
                1
            ],
            [
                0,
                0,
                -1
            ],
            [
                1,
                0,
                -1
            ],
            [
                2,
                0,
                -1
            ],
            [
                1,
                1,
                -1
            ],
            [
                1,
                -1,
                -1
            ],
            [
                1,
                0,
                -2
            ],
            [
                -1,
                0,
                -1
            ],
            [
                -2,
                0,
                -1
            ],
            [
                -1,
                1,
                -1
            ],
            [
                -1,
                -1,
                -1
            ],
            [
                -1,
                0,
                -2
            ]
        ],
        "root": [
            0,
            0,
            0
        ],
        "numLeaves": 11
    },
    {
        "final": true,
        "degrees": [
            2,
            3,
            5,
            5,
            6
        ],
        "numNodes": 18,
        "direction": [
            0,
            0,
            1
        ],
        "cells": [
            [
                0,
                0,
                0
            ],
            [
                0,
                0,
                1
            ],
            [
                0,
                1,
                1
            ],
            [
                1,
                1,
                1
            ],
            [
                -1,
                1,
                1
            ],
            [
                0,
                2,
                1
            ],
            [
                0,
                1,
                2
            ],
            [
                0,
                -1,
                1
            ],
            [
                1,
                -1,
                1
            ],
            [
                -1,
                -1,
                1
            ],
            [
                0,
                -2,
                1
            ],
            [
                0,
                -1,
                2
            ],
            [
                0,
                0,
                -1
            ],
            [
                1,
                0,
                -1
            ],
            [
                -1,
                0,
                -1
            ],
            [
                0,
                1,
                -1
            ],
            [
                0,
                -1,
                -1
            ],
            [
                0,
                0,
                -2
            ]
        ],
        "root": [
            0,
            0,
            0
        ],
        "numLeaves": 13
    },
    {
        "final": true,
        "degrees": [
            2,
            3,
            5,
            5,
            6
        ],
        "numNodes": 18,
        "direction": [
            0,
            0,
            -1
        ],
        "cells": [
            [
                0,
                0,
                0
            ],
            [
                0,
                0,
                1
            ],
            [
                0,
                1,
                1
            ],
            [
                1,
                1,
                1
            ],
            [
                -1,
                1,
                1
            ],
            [
                0,
                2,
                1
            ],
            [
                0,
                1,
                2
            ],
            [
                0,
                -1,
                1
            ],
            [
                1,
                -1,
                1
            ],
            [
                -1,
                -1,
                1
            ],
            [
                0,
                -2,
                1
            ],
            [
                0,
                -1,
                2
            ],
            [
                0,
                0,
                -1
            ],
            [
                1,
                0,
                -1
            ],
            [
                -1,
                0,
                -1
            ],
            [
                0,
                1,
                -1
            ],
            [
                0,
                -1,
                -1
            ],
            [
                0,
                0,
                -2
            ]
        ],
        "root": [
            0,
            0,
            0
        ],
        "numLeaves": 13
    },
    {
        "final": true,
        "degrees": [
            3,
            3,
            5,
            5,
            5
        ],
        "numNodes": 18,
        "direction": [
            0,
            0,
            1
        ],
        "cells": [
            [
                0,
                0,
                0
            ],
            [
                0,
                -1,
                0
            ],
            [
                0,
                0,
                1
            ],
            [
                1,
                0,
                1
            ],
            [
                -1,
                0,
                1
            ],
            [
                0,
                1,
                1
            ],
            [
                0,
                0,
                2
            ],
            [
                0,
                0,
                -1
            ],
            [
                1,
                0,
                -1
            ],
            [
                2,
                0,
                -1
            ],
            [
                1,
                1,
                -1
            ],
            [
                1,
                -1,
                -1
            ],
            [
                1,
                0,
                -2
            ],
            [
                -1,
                0,
                -1
            ],
            [
                -2,
                0,
                -1
            ],
            [
                -1,
                1,
                -1
            ],
            [
                -1,
                -1,
                -1
            ],
            [
                -1,
                0,
                -2
            ]
        ],
        "root": [
            0,
            0,
            0
        ],
        "numLeaves": 13
    }
]