[
    {
        "final": false,
        "degrees": [],
        "numNodes": 2,
        "direction": [
            0,
            0,
            -1
        ],
        "cells": [
            [
                0,
                0,
                0
            ],
            [
                0,
                0,
                -1
            ]
        ],
        "root": [
            0,
            0,
            0
        ],
        "numLeaves": 2
    }
]