[
    {
        "recursively-saturated": {
            "final": false,
            "degrees": [
                3,
                3,
                3,
                4,
                4,
                4,
                4,
                4,
                4,
                4,
                4,
                5,
                5,
                5,
                5,
                5,
                5
            ],
            "numNodes": 56,
            "direction": [
                0,
                0,
                1
            ],
            "cells": [
                [
                    0,
                    0,
                    0
                ],
                [
                    0,
                    1,
                    0
                ],
                [
                    0,
                    -1,
                    0
                ],
                [
                    0,
                    0,
                    1
                ],
                [
                    0,
                    0,
                    -1
                ],
                [
                    1,
                    0,
                    -1
                ],
                [
                    2,
                    0,
                    -1
                ],
                [
                    3,
                    0,
                    -1
                ],
                [
                    3,
                    1,
                    -1
                ],
                [
                    4,
                    1,
                    -1
                ],
                [
                    3,
                    2,
                    -1
                ],
                [
                    3,
                    1,
                    0
                ],
                [
                    3,
                    1,
                    -2
                ],
                [
                    3,
                    -1,
                    -1
                ],
                [
                    4,
                    -1,
                    -1
                ],
                [
                    3,
                    -2,
                    -1
                ],
                [
                    3,
                    -1,
                    0
                ],
                [
                    3,
                    -1,
                    -2
                ],
                [
                    2,
                    0,
                    0
                ],
                [
                    2,
                    0,
                    -2
                ],
                [
                    1,
                    1,
                    -1
                ],
                [
                    1,
                    -1,
                    -1
                ],
                [
                    -1,
                    0,
                    -1
                ],
                [
                    -2,
                    0,
                    -1
                ],
                [
                    -3,
                    0,
                    -1
                ],
                [
                    -3,
                    1,
                    -1
                ],
                [
                    -4,
                    1,
                    -1
                ],
                [
                    -3,
                    2,
                    -1
                ],
                [
                    -3,
                    1,
                    0
                ],
                [
                    -3,
                    1,
                    -2
                ],
                [
                    -3,
                    -1,
                    -1
                ],
                [
                    -4,
                    -1,
                    -1
                ],
                [
                    -3,
                    -2,
                    -1
                ],
                [
                    -3,
                    -1,
                    0
                ],
                [
                    -3,
                    -1,
                    -2
                ],
                [
                    -2,
                    0,
                    0
                ],
                [
                    -2,
                    0,
                    -2
                ],
                [
                    -1,
                    1,
                    -1
                ],
                [
                    -1,
                    -1,
                    -1
                ],
                [
                    0,
                    0,
                    -2
                ],
                [
                    0,
                    1,
                    -2
                ],
                [
                    0,
                    -1,
                    -2
                ],
                [
                    0,
                    0,
                    -3
                ],
                [
                    1,
                    0,
                    -3
                ],
                [
                    -1,
                    0,
                    -3
                ],
                [
                    0,
                    0,
                    -4
                ],
                [
                    0,
                    1,
                    -4
                ],
                [
                    1,
                    1,
                    -4
                ],
                [
                    -1,
                    1,
                    -4
                ],
                [
                    0,
                    2,
                    -4
                ],
                [
                    0,
                    1,
                    -5
                ],
                [
                    0,
                    -1,
                    -4
                ],
                [
                    1,
                    -1,
                    -4
                ],
                [
                    -1,
                    -1,
                    -4
                ],
                [
                    0,
                    -2,
                    -4
                ],
                [
                    0,
                    -1,
                    -5
                ]
            ],
            "root": [
                0,
                0,
                0
            ],
            "numLeaves": 39
        },
        "substitute-by": {
            "final": false,
            "degrees": [
                5
            ],
            "numNodes": 6,
            "direction": [
                0,
                0,
                1
            ],
            "cells": [
                [
                    0,
                    0,
                    0
                ],
                [
                    -1,
                    0,
                    0
                ],
                [
                    0,
                    1,
                    0
                ],
                [
                    0,
                    -1,
                    0
                ],
                [
                    0,
                    0,
                    1
                ],
                [
                    0,
                    0,
                    -1
                ]
            ],
            "root": [
                0,
                0,
                0
            ],
            "numLeaves": 5
        }
    }
]